logID,Alarm Type,Participant Name,Scenario Name,Autopilot,Surprise,Aural,Graded,Runway,Blunder Direction,Accuracy,Time at which the first graded cue was sent (seconds),Altitude at which the first graded cue was sent (feet),Indicated Airspeed at which the first graded cue was sent (knots),LogID at which the first graded cue was sent,Time at which the tactile cue was sent (seconds),Altitude at which the tactile cue was sent (feet),Indicated Airspeed when tactile cue was sent (knots),LogID when tactile cue was sent,Average Deviation from Localizer (GS capture to 600/alert),Average Deviation from Glide Slope (GS capture to 600/alert),Average of Average Deviation from LOC and GS (GS capture to 600/alert),Standard Deviation from Localizer (GS capture to 600/alert),Standard Deviation from Glide Slope (GS capture to 600/alert),Standard Deviation of Average from LOC and GS (GS capture to 600/alert),RT_pitch_raw,RT_roll_raw,RT_glideslope_raw,RT_glideslope_velocity,RT_localizer_raw,RT_localizer_velocity,RT_horizontal,RT_vertical,RT_master
1,command,Mark Norsworthy,A,on,no,no,non-graded,28L,right,correct,-1,-1,-1,-1,170.9,757.489,135.425,755,0.0624126,0.161954,0.112183,0.0139077,0.065079,0.0340313,3.298,2.09201,8.214,4.70201,7.246,3.498,4.68067,5.40467,5.04267,
2,command,Mark Norsworthy,B,on,no,no,non-graded,28R,none,n/a,-1,-1,-1,-1,-1,-1,-1,-1,0.00993123,0.183947,0.0969392,0.00396812,0.0609303,0.031676,-1,-1,-1,-1,-1,-1,-1,-1,-1,
3,command,Mark Norsworthy,C,on,no,no,non-graded,28R,left,correct,-1,-1,-1,-1,156.501,944.484,135.355,690,0.00693465,0.142004,0.0744692,0.00337333,0.0691769,0.0355595,5.159,1.67599,7.269,2.62199,5.159,2.86299,4.39366,5.01666,4.70516,
4,command,Mark Norsworthy,D,on,no,yes,non-graded,28L,right,correct,-1,-1,-1,-1,173.831,711.88,135.304,760,0.0596409,0.185208,0.122424,0.0203687,0.0557788,0.0261906,2.55701,1.64201,7.01001,3.511,6.334,3.761,4.21734,4.35934,4.28834,
5,command,Mark Norsworthy,E,off,no,no,non-graded,28R,left,correct,-1,-1,-1,-1,153.401,876.218,144.747,676,0.0534368,0.526439,0.289938,0.036743,0.355281,0.177913,4.94299,2.541,8.255,5.89799,6.368,4.474,5.26166,6.36533,5.8135,
6,command,Mark Norsworthy,F,off,no,no,non-graded,28L,right,correct,-1,-1,-1,-1,159.293,790.686,141.973,699,0.17725,0.230103,0.203677,0.103361,0.170633,0.120852,4.265,2.12601,6.116,4.955,6.354,4.265,4.96133,5.112,5.03667,
7,command,Mark Norsworthy,G,off,no,no,non-graded,28L,none,n/a,-1,-1,-1,-1,-1,-1,-1,-1,0.152585,0.230499,0.191542,0.0871403,0.151122,0.0931438,-1,-1,-1,-1,-1,-1,-1,-1,-1,
8,command,Mark Norsworthy,H,off,no,yes,non-graded,28L,right,correct,-1,-1,-1,-1,179.264,597.229,135.52,791,0.124933,0.366637,0.245785,0.0763302,0.19268,0.0729648,4.48199,3.10399,8.439,5.189,8.892,5.42099,6.26499,6.03666,6.15083,
9,command,Mark Norsworthy,I,on,no,no,graded,28R,none,n/a,-1,-1,-1,-1,-1,-1,-1,-1,0.00927671,0.13691,0.0730933,0.00704968,0.068458,0.0314232,-1,-1,-1,-1,-1,-1,-1,-1,-1,
10,command,Mark Norsworthy,J,on,no,no,graded,28R,left,correct,122.799,1397.26,152.943,552,159.714,899.733,135.246,709,0.00673447,0.168185,0.0874595,0.00323256,0.0605364,0.0311643,5.04199,1.349,6.86299,4.14999,4.842,2.565,4.14966,5.35166,4.75066,
11,command,Mark Norsworthy,K,on,no,no,graded,28L,right,correct,123.864,1363.93,156.107,555,160.755,867.213,135.33,712,0.0162815,0.171944,0.0941124,0.0131608,0.0630704,0.0276002,4.07599,1.65399,6.89099,4.78099,4.07599,3.105,3.75232,5.24932,4.50082,
12,command,Mark Norsworthy,L,on,no,delay,graded,28R,left,correct,134.921,1218.11,144.654,598,173.922,719.69,135.089,763,0.0959169,0.19182,0.143869,0.0226299,0.0560662,0.0322788,3.97501,1.90401,6.787,4.444,6.31,3.72701,4.67067,5.06867,4.86967,
13,command,Mark Norsworthy,M,off,no,no,graded,28R,none,n/a,-1,-1,-1,-1,-1,-1,-1,-1,0.176588,0.483067,0.329828,0.115297,0.305448,0.147798,-1,-1,-1,-1,-1,-1,-1,-1,-1,
14,command,Mark Norsworthy,N,off,yes,no,graded,28L,left,correct,123.722,1267.15,162.501,550,157.451,775.49,141.02,694,0.427662,0.050861,0.239261,0,0,0,3.48,2.10199,7.868,4.39299,6.72899,4.86,5.02299,5.24699,5.13499,
15,command,Mark Norsworthy,O,off,no,no,graded,28L,right,correct,140.099,1100.07,148.254,623,176.834,615,136.684,780,0.0994905,0.317763,0.208627,0.0642993,0.303567,0.14288,3.02299,1.88699,8.16901,4.416,5.086,3.02299,3.71066,5.20267,4.45667,
16,command,Mark Norsworthy,P,off,no,delay,graded,28R,left,correct,122.673,1421.62,152.789,548,153.54,924.428,139.994,681,0.254297,0.29943,0.276863,0.104907,0.184818,0.129456,4.46501,1.403,8.17401,5.37901,8.89801,3.29701,5.55334,6.00601,5.77968,
17,command,Mark Norsworthy,A,on,no,no,non-graded,28L,right,correct,-1,-1,-1,-1,170.9,757.489,135.425,755,0.0624126,0.161954,0.112183,0.0139077,0.065079,0.0340313,4.451,2.81601,8.214,4.70201,7.246,3.498,5.065,5.78901,5.427,
18,command,Mark Norsworthy,B,on,no,no,non-graded,28R,none,n/a,-1,-1,-1,-1,-1,-1,-1,-1,0.00993123,0.183947,0.0969392,0.00396812,0.0609303,0.031676,-1,-1,-1,-1,-1,-1,-1,-1,-1,
19,command,Mark Norsworthy,C,on,no,no,non-graded,28R,left,correct,-1,-1,-1,-1,156.501,944.484,135.355,690,0.00693465,0.142004,0.0744692,0.00337333,0.0691769,0.0355595,5.62399,2.86299,7.269,2.62199,5.159,2.86299,4.54866,5.17166,4.86016,
20,command,Mark Norsworthy,D,on,no,yes,non-graded,28L,right,correct,-1,-1,-1,-1,173.831,711.88,135.304,760,0.0596409,0.185208,0.122424,0.0203687,0.0557788,0.0261906,3.992,2.791,7.01001,3.511,6.334,3.761,4.69567,4.83767,4.76667,
21,command,Mark Norsworthy,E,off,no,no,non-graded,28R,left,correct,-1,-1,-1,-1,153.401,876.218,144.747,676,0.0534368,0.526439,0.289938,0.036743,0.355281,0.177913,4.701,2.776,8.255,5.89799,6.368,4.474,5.181,6.28467,5.73283,
22,command,Mark Norsworthy,F,off,no,no,non-graded,28L,right,correct,-1,-1,-1,-1,159.293,790.686,141.973,699,0.17725,0.230103,0.203677,0.103361,0.170633,0.120852,4.265,2.364,6.116,4.955,6.354,4.265,4.96133,5.112,5.03667,
23,command,Mark Norsworthy,G,off,no,no,non-graded,28L,none,n/a,-1,-1,-1,-1,-1,-1,-1,-1,0.152585,0.230499,0.191542,0.0871403,0.151122,0.0931438,-1,-1,-1,-1,-1,-1,-1,-1,-1,
24,command,Mark Norsworthy,H,off,no,yes,non-graded,28L,right,correct,-1,-1,-1,-1,179.264,597.229,135.52,791,0.124933,0.366637,0.245785,0.0763302,0.19268,0.0729648,4.717,2.409,8.439,5.189,8.892,5.42099,6.34333,6.115,6.22916,
25,command,Mark Norsworthy,I,on,no,no,graded,28R,none,n/a,-1,-1,-1,-1,-1,-1,-1,-1,0.00927671,0.13691,0.0730933,0.00704968,0.068458,0.0314232,-1,-1,-1,-1,-1,-1,-1,-1,-1,
26,command,Mark Norsworthy,J,on,no,no,graded,28R,left,correct,122.799,1397.26,152.943,552,159.714,899.733,135.246,709,0.00673447,0.168185,0.0874595,0.00323256,0.0605364,0.0311643,5.72699,2.325,6.86299,4.14999,4.842,2.565,4.378,5.57999,4.97899,
27,command,Mark Norsworthy,K,on,no,no,graded,28L,right,correct,123.864,1363.93,156.107,555,160.755,867.213,135.33,712,0.0162815,0.171944,0.0941124,0.0131608,0.0630704,0.0276002,4.31,2.388,6.89099,4.78099,4.07599,3.105,3.83033,5.32733,4.57883,
28,command,Mark Norsworthy,L,on,no,delay,graded,28R,left,correct,134.921,1218.11,144.654,598,173.922,719.69,135.089,763,0.0959169,0.19182,0.143869,0.0226299,0.0560662,0.0322788,4.444,2.599,6.787,4.444,6.31,3.72701,4.827,5.225,5.026,
29,command,Mark Norsworthy,M,off,no,no,graded,28R,none,n/a,-1,-1,-1,-1,-1,-1,-1,-1,0.176588,0.483067,0.329828,0.115297,0.305448,0.147798,-1,-1,-1,-1,-1,-1,-1,-1,-1,
30,command,Mark Norsworthy,N,off,yes,no,graded,28L,left,correct,123.722,1267.15,162.501,550,157.451,775.49,141.02,694,0.427662,0.050861,0.239261,0,0,0,3.71199,1.86699,7.868,4.39299,6.72899,4.86,5.10033,5.32433,5.21233,
31,command,Mark Norsworthy,O,off,no,no,graded,28L,right,correct,140.099,1100.07,148.254,623,176.834,615,136.684,780,0.0994905,0.317763,0.208627,0.0642993,0.303567,0.14288,2.784,2.127,8.16901,4.416,5.086,3.02299,3.631,5.123,4.377,
32,command,Mark Norsworthy,P,off,no,delay,graded,28R,left,correct,122.673,1421.62,152.789,548,153.54,924.428,139.994,681,0.254297,0.29943,0.276863,0.104907,0.184818,0.129456,4.007,1.645,8.17401,5.37901,8.89801,3.29701,5.40068,5.85334,5.62701,
